{
    "name": "O11yAC: New Relic Workshop (TF)",
    "description": "This is an example dashboard",
    "permissions": "PUBLIC_READ_WRITE",
    "pages": [
      {
        "name": "Node.js App Overview",
        "description": "Node.js App Overview",
        "widgets": [
          {
            "title": "",
            "layout": {
              "column": 1,
              "row": 1,
              "width": 12,
              "height": 1
            },
            "linkedEntityGuids": null,
            "visualization": {
              "id": "viz.markdown"
            },
            "rawConfiguration": {
              "text": "## More details available on Application Monitoring (APM) page.\n\nDive deeper on transaction details, distributed tracing, related entities, anomalies, errors and more. [Open the Explorer.](https://onenr.io/0rVRVGaNWja)"
            }
          },
          {
            "title": "",
            "layout": {
              "column": 1,
              "row": 2,
              "width": 5,
              "height": 3
            },
            "linkedEntityGuids": null,
            "visualization": {
              "id": "viz.markdown"
            },
            "rawConfiguration": {
              "text": "\n![Transactions](https://raw.githubusercontent.com/newrelic/newrelic-quickstarts/main/quickstarts/node-js/node-js/images/Transactions.png)\n"
            }
          },
          {
            "title": "Transactions Overview",
            "layout": {
              "column": 6,
              "row": 2,
              "width": 7,
              "height": 3
            },
            "linkedEntityGuids": null,
            "visualization": {
              "id": "viz.billboard"
            },
            "rawConfiguration": {
              "dataFormatters": [],
              "nrqlQueries": [
                {
                  "accountId": 3538507,
                  "query": "FROM Transaction SELECT count(*) as 'Total transactions', average(duration) as 'Avg duration (s)', percentile(duration, 90) as 'Slowest 10% (s)', percentage(count(*), WHERE error is false) AS 'Success rate' SINCE 1 WEEK AGO"
                }
              ],
              "thresholds": []
            }
          },
          {
            "title": "",
            "layout": {
              "column": 1,
              "row": 5,
              "width": 5,
              "height": 3
            },
            "linkedEntityGuids": null,
            "visualization": {
              "id": "viz.markdown"
            },
            "rawConfiguration": {
              "text": "![Errors](https://raw.githubusercontent.com/newrelic/newrelic-quickstarts/main/quickstarts/node-js/node-js/images/Errors.png)\n"
            }
          },
          {
            "title": "Errors Overview",
            "layout": {
              "column": 6,
              "row": 5,
              "width": 7,
              "height": 3
            },
            "linkedEntityGuids": null,
            "visualization": {
              "id": "viz.billboard"
            },
            "rawConfiguration": {
              "dataFormatters": [],
              "nrqlQueries": [
                {
                  "accountId": 3538507,
                  "query": "FROM Transaction SELECT count(*) as 'Total transactions',percentage(count(*), WHERE error IS true) as 'Failed transactions (%)', count(*) * percentage(count(*), WHERE error IS true) / 100 as 'Failed transactions' SINCE 1 week ago"
                }
              ],
              "thresholds": []
            }
          },
          {
            "title": "",
            "layout": {
              "column": 1,
              "row": 8,
              "width": 5,
              "height": 3
            },
            "linkedEntityGuids": null,
            "visualization": {
              "id": "viz.markdown"
            },
            "rawConfiguration": {
              "text": "![VM Metrics](https://raw.githubusercontent.com/newrelic/newrelic-quickstarts/main/quickstarts/node-js/node-js/images/VM-metrics.png)\n"
            }
          },
          {
            "title": "VM Overview",
            "layout": {
              "column": 6,
              "row": 8,
              "width": 7,
              "height": 3
            },
            "linkedEntityGuids": null,
            "visualization": {
              "id": "viz.billboard"
            },
            "rawConfiguration": {
              "dataFormatters": [],
              "nrqlQueries": [
                {
                  "accountId": 3538507,
                  "query": "FROM Metric SELECT average(apm.service.cpu.usertime.utilization) * 100 as 'Average CPU utilization (%)', average(apm.service.memory.physical) as 'Average memory used (MB)' WHERE appName like '%' SINCE 1 week AGO"
                }
              ],
              "thresholds": []
            }
          }
        ]
      },
      {
        "name": "Errors",
        "description": "Errors",
        "widgets": [
          {
            "title": "Errors Overview",
            "layout": {
              "column": 1,
              "row": 1,
              "width": 8,
              "height": 3
            },
            "linkedEntityGuids": null,
            "visualization": {
              "id": "viz.billboard"
            },
            "rawConfiguration": {
              "dataFormatters": [],
              "nrqlQueries": [
                {
                  "accountId": 3538507,
                  "query": "FROM Transaction SELECT count(*) as 'Total transactions',percentage(count(*), WHERE error IS true) as 'Failed transactions (%)', count(*) * percentage(count(*), WHERE error IS true) / 100 as 'Failed transactions' SINCE 1 week ago"
                }
              ],
              "thresholds": []
            }
          },
          {
            "title": "Transaction Errors Day By Day",
            "layout": {
              "column": 9,
              "row": 1,
              "width": 4,
              "height": 3
            },
            "linkedEntityGuids": null,
            "visualization": {
              "id": "dc5b694f-9125-4c64-8e4e-c52e604c8088.range-chart"
            },
            "rawConfiguration": {
              "nrqlQueries": [
                {
                  "accountId": 3538507,
                  "query": "FROM TransactionError SELECT count(*), percentage(count(*), WHERE error IS true) FACET dateOf(timestamp) SINCE 1 week ago"
                }
              ],
              "other": {
                "visible": false
              }
            }
          },
          {
            "title": "Transactions Errors Today Compared With 1 Week Ago",
            "layout": {
              "column": 1,
              "row": 4,
              "width": 6,
              "height": 3
            },
            "linkedEntityGuids": null,
            "visualization": {
              "id": "viz.line"
            },
            "rawConfiguration": {
              "legend": {
                "enabled": true
              },
              "nrqlQueries": [
                {
                  "accountId": 3538507,
                  "query": "SELECT count(*) from Transaction where response.status = '404' and transactionType = 'Web' TIMESERIES 10 minutes since today COMPARE WITH 1 week ago"
                }
              ],
              "yAxisLeft": {
                "zero": true
              }
            }
          },
          {
            "title": "Latest Error",
            "layout": {
              "column": 7,
              "row": 4,
              "width": 6,
              "height": 3
            },
            "linkedEntityGuids": null,
            "visualization": {
              "id": "viz.billboard"
            },
            "rawConfiguration": {
              "dataFormatters": [],
              "nrqlQueries": [
                {
                  "accountId": 3538507,
                  "query": "FROM TransactionError SELECT latest(timestamp) as 'Latest Error' SINCE last week "
                }
              ],
              "thresholds": []
            }
          }
        ]
      },
      {
        "name": "VM Metrics",
        "description": "VM Metrics",
        "widgets": [
          {
            "title": "VM Overview",
            "layout": {
              "column": 1,
              "row": 1,
              "width": 7,
              "height": 3
            },
            "linkedEntityGuids": null,
            "visualization": {
              "id": "viz.billboard"
            },
            "rawConfiguration": {
              "dataFormatters": [],
              "nrqlQueries": [
                {
                  "accountId": 3538507,
                  "query": "FROM Metric SELECT average(apm.service.cpu.usertime.utilization) * 100 as 'Average CPU utilization (%)', average(apm.service.memory.physical) as 'Average memory used (MB)' WHERE appName like '%' SINCE 1 week AGO"
                }
              ],
              "thresholds": []
            }
          },
          {
            "title": "Average Physical Memory Used",
            "layout": {
              "column": 1,
              "row": 4,
              "width": 6,
              "height": 3
            },
            "linkedEntityGuids": null,
            "visualization": {
              "id": "viz.line"
            },
            "rawConfiguration": {
              "legend": {
                "enabled": true
              },
              "nrqlQueries": [
                {
                  "accountId": 3538507,
                  "query": "SELECT average(apm.service.memory.physical) as 'Average Physical Memory Used' FROM Metric WHERE appName LIKE '%' SINCE 30 MINUTES AGO TIMESERIES"
                }
              ],
              "yAxisLeft": {
                "zero": true
              }
            }
          },
          {
            "title": "CPU Utilization",
            "layout": {
              "column": 7,
              "row": 4,
              "width": 6,
              "height": 3
            },
            "linkedEntityGuids": null,
            "visualization": {
              "id": "viz.line"
            },
            "rawConfiguration": {
              "legend": {
                "enabled": true
              },
              "nrqlQueries": [
                {
                  "accountId": 3538507,
                  "query": "SELECT rate(sum(apm.service.cpu.usertime.utilization), 1 second) * 100 as cpuUsage FROM Metric WHERE appName like '%' SINCE 30 minutes ago TIMESERIES"
                }
              ],
              "yAxisLeft": {
                "zero": true
              }
            }
          }
        ]
      },
      {
        "name": "Transactions",
        "description": "Transactions",
        "widgets": [
          {
            "title": "Transactions Overview",
            "layout": {
              "column": 1,
              "row": 1,
              "width": 7,
              "height": 3
            },
            "linkedEntityGuids": null,
            "visualization": {
              "id": "viz.billboard"
            },
            "rawConfiguration": {
              "dataFormatters": [],
              "nrqlQueries": [
                {
                  "accountId": 3538507,
                  "query": "FROM Transaction SELECT count(*) as 'Total transactions', average(duration) as 'Avg duration (s)', percentile(duration, 90) as 'Slowest 10% (s)', percentage(count(*), WHERE error is false) AS 'Success rate' SINCE 1 WEEK AGO"
                }
              ],
              "thresholds": []
            }
          },
          {
            "title": "Most Popular Transactions",
            "layout": {
              "column": 8,
              "row": 1,
              "width": 5,
              "height": 3
            },
            "linkedEntityGuids": null,
            "visualization": {
              "id": "viz.pie"
            },
            "rawConfiguration": {
              "facet": {
                "showOtherSeries": false
              },
              "nrqlQueries": [
                {
                  "accountId": 3538507,
                  "query": "SELECT count(*) FROM Transaction WHERE (transactionType = 'Web') SINCE last week EXTRAPOLATE FACET name"
                }
              ]
            }
          },
          {
            "title": "Top 5 Slowest Transactions",
            "layout": {
              "column": 1,
              "row": 4,
              "width": 4,
              "height": 3
            },
            "linkedEntityGuids": null,
            "visualization": {
              "id": "dc5b694f-9125-4c64-8e4e-c52e604c8088.stacked-bar-chart"
            },
            "rawConfiguration": {
              "nrqlQueries": [
                {
                  "accountId": 3538507,
                  "query": "SELECT max(duration) FROM Transaction WHERE (transactionType = 'Web') SINCE 1 week ago LIMIT 5 EXTRAPOLATE FACET name"
                }
              ],
              "other": {
                "visible": false
              },
              "yAxis": {
                "label": "Seconds"
              }
            }
          },
          {
            "title": "Transaction Day By Day",
            "layout": {
              "column": 5,
              "row": 4,
              "width": 8,
              "height": 3
            },
            "linkedEntityGuids": null,
            "visualization": {
              "id": "dc5b694f-9125-4c64-8e4e-c52e604c8088.range-chart"
            },
            "rawConfiguration": {
              "nrqlQueries": [
                {
                  "accountId": 3538507,
                  "query": "FROM Transaction SELECT count(*), percentage(count(*), WHERE error IS false) FACET dateOf(timestamp) SINCE 1 week ago"
                }
              ],
              "other": {
                "visible": null
              }
            }
          },
          {
            "title": "Average Transaction Duration Today Compared With 1 Week Ago",
            "layout": {
              "column": 1,
              "row": 7,
              "width": 4,
              "height": 3
            },
            "linkedEntityGuids": null,
            "visualization": {
              "id": "viz.line"
            },
            "rawConfiguration": {
              "dataFormatters": [],
              "legend": {
                "enabled": true
              },
              "nrqlQueries": [
                {
                  "accountId": 3538507,
                  "query": "SELECT average(duration) FROM Transaction TIMESERIES SINCE today COMPARE WITH 1 week ago"
                }
              ],
              "yAxisLeft": {
                "zero": true
              }
            }
          },
          {
            "title": "Apdex Score Today Compared With 1 Week Ago",
            "layout": {
              "column": 5,
              "row": 7,
              "width": 4,
              "height": 3
            },
            "linkedEntityGuids": null,
            "visualization": {
              "id": "viz.line"
            },
            "rawConfiguration": {
              "legend": {
                "enabled": true
              },
              "nrqlQueries": [
                {
                  "accountId": 3538507,
                  "query": "SELECT apdex(duration,t: 0.4) FROM Transaction TIMESERIES SINCE today COMPARE WITH 1 week ago"
                }
              ],
              "yAxisLeft": {
                "zero": true
              }
            }
          },
          {
            "title": "Throughput Today Compared With 1 Week Ago",
            "layout": {
              "column": 9,
              "row": 7,
              "width": 4,
              "height": 3
            },
            "linkedEntityGuids": null,
            "visualization": {
              "id": "viz.line"
            },
            "rawConfiguration": {
              "legend": {
                "enabled": true
              },
              "nrqlQueries": [
                {
                  "accountId": 3538507,
                  "query": "SELECT count(*) from Transaction TIMESERIES 1 hour  since today COMPARE WITH 1 week ago"
                }
              ],
              "yAxisLeft": {
                "zero": true
              }
            }
          }
        ]
      }
    ],
    "variables": []
  }
